{
  "files": {
    "main.css": "/static/css/main.df6d56a7.chunk.css",
    "main.js": "/static/js/main.64f4afb0.chunk.js",
    "main.js.map": "/static/js/main.64f4afb0.chunk.js.map",
    "runtime~main.js": "/static/js/runtime~main.a8a9905a.js",
    "runtime~main.js.map": "/static/js/runtime~main.a8a9905a.js.map",
    "static/css/2.22a7d4ef.chunk.css": "/static/css/2.22a7d4ef.chunk.css",
    "static/js/2.bbc7762f.chunk.js": "/static/js/2.bbc7762f.chunk.js",
    "static/js/2.bbc7762f.chunk.js.map": "/static/js/2.bbc7762f.chunk.js.map",
    "index.html": "/index.html",
    "precache-manifest.33ebb2572e2bd0a36f6d6a2cb0ad637b.js": "/precache-manifest.33ebb2572e2bd0a36f6d6a2cb0ad637b.js",
    "service-worker.js": "/service-worker.js",
    "static/css/2.22a7d4ef.chunk.css.map": "/static/css/2.22a7d4ef.chunk.css.map",
    "static/css/main.df6d56a7.chunk.css.map": "/static/css/main.df6d56a7.chunk.css.map"
  }
}